[{
  "id": 1,
  "fecha": "12/2/2019",
  "importe": 53,
  "latitud": 22.265811,
  "longitud": 113.543784,
  "ciudad": "Xiongzhou"
}, {
  "id": 2,
  "fecha": "1/27/2020",
  "importe": 97,
  "latitud": 57.7470467,
  "longitud": 14.1650902,
  "ciudad": "Jönköping"
}, {
  "id": 3,
  "fecha": "4/13/2020",
  "importe": 85,
  "latitud": 41.9914135,
  "longitud": 121.6412579,
  "ciudad": "Nahuo"
}, {
  "id": 4,
  "fecha": "2/13/2020",
  "importe": 65,
  "latitud": 39.0407357,
  "longitud": 117.6398107,
  "ciudad": "Yujin"
}, {
  "id": 5,
  "fecha": "11/12/2019",
  "importe": 1,
  "latitud": 32.1620768,
  "longitud": 118.7298193,
  "ciudad": "Shitouhe"
}, {
  "id": 6,
  "fecha": "12/4/2019",
  "importe": 90,
  "latitud": -34.7796334,
  "longitud": -58.6040349,
  "ciudad": "Azul"
}, {
  "id": 7,
  "fecha": "8/4/2019",
  "importe": 18,
  "latitud": 34.662234,
  "longitud": 109.226101,
  "ciudad": "Yanliang"
}, {
  "id": 8,
  "fecha": "7/26/2019",
  "importe": 98,
  "latitud": 23.030446,
  "longitud": 113.734466,
  "ciudad": "Qianpai"
}, {
  "id": 9,
  "fecha": "10/22/2019",
  "importe": 22,
  "latitud": 57.0384344,
  "longitud": 54.0037032,
  "ciudad": "Votkinsk"
}, {
  "id": 10,
  "fecha": "2/7/2020",
  "importe": 15,
  "latitud": 40.7345053,
  "longitud": -111.8628205,
  "ciudad": "Salt Lake City"
}]
